C:\laragon\www\mern\fundamental-git (master)                                                                                    
λ git branch                                                                                                                    
* master                                                                                                                        
                                                                                                                                
C:\laragon\www\mern\fundamental-git (master)                                                                                    
λ git branch --all                                                                                                              
* master                                                                                                                        
  remotes/origin/master                                                                                                         
                                                                                                                                
C:\laragon\www\mern\fundamental-git (master)                                                                                    
λ git branch user-page                                                                                                          
                                                                                                                                
C:\laragon\www\mern\fundamental-git (master)                                                                                    
λ git branch                                                                                                                    
* master                                                                                                                        
  user-page                                                                                                                     
                                                                                                                                
C:\laragon\www\mern\fundamental-git (master)                                                                                    
λ git checkout user-page                                                                                                        
Switched to branch 'user-page'                                                                                                  
                                                                                                                                
C:\laragon\www\mern\fundamental-git (user-page)                                                                                 
λ git checkout master                                                                                                           
Switched to branch 'master'                                                                                                     
                                                                                                                                
C:\laragon\www\mern\fundamental-git (master)                                                                                    
λ git branch -d user-page                                                                                                       
Deleted branch user-page (was 7fc2357).                                                                                         
                                                                                                                                
C:\laragon\www\mern\fundamental-git (master)                                                                                    
λ git branch                                                                                                                    
* master                                                                                                                        
                                                                                                                                
C:\laragon\www\mern\fundamental-git (master)                                                                                    
λ git branch admin-page                                                                                                         
                                                                                                                                
C:\laragon\www\mern\fundamental-git (master)                                                                                    
λ git branch                                                                                                                    
  admin-page                                                                                                                    
* master                                                                                                                        
                                                                                                                                
C:\laragon\www\mern\fundamental-git (master)                                                                                    
λ git checkout admin-page                                                                                                       
Switched to branch 'admin-page'                                                                                                 
                                                                                                                                
C:\laragon\www\mern\fundamental-git (admin-page)                                                                                
λ git status                                                                                                                    
On branch admin-page                                                                                                            
Changes not staged for commit:                                                                                                  
  (use "git add <file>..." to update what will be committed)                                                                    
  (use "git restore <file>..." to discard changes in working directory)                                                         
        modified:   index.html                                                                                                  
                                                                                                                                
no changes added to commit (use "git add" and/or "git commit -a")                                                               
                                                                                                                                
C:\laragon\www\mern\fundamental-git (admin-page)                                                                                
λ git add .                                                                                                                     
                                                                                                                                
C:\laragon\www\mern\fundamental-git (admin-page)                                                                                
λ git status                                                                                                                    
On branch admin-page                                                                                                            
Changes to be committed:                                                                                                        
  (use "git restore --staged <file>..." to unstage)                                                                             
        modified:   index.html                                                                                                  
                                                                                                                                
                                                                                                                                
C:\laragon\www\mern\fundamental-git (admin-page)                                                                                
λ git commit -m "add link at index.html file"                                                                                   
[admin-page 12689f1] add link at index.html file                                                                                
 1 file changed, 1 insertion(+)                                                                                                 
                                                                                                                                
C:\laragon\www\mern\fundamental-git (admin-page)                                                                                
λ git log                                                                                                                       
commit 12689f1206b9e326f20b428d319d41bc0c9dc577 (HEAD -> admin-page)                                                            
Author: dedenurdiyanto13 <dedenurdiyanto13@gmail.com>                                                                           
Date:   Wed Dec 15 10:13:24 2021 +0700                                                                                          
                                                                                                                                
    add link at index.html file                                                                                                 
                                                                                                                                
commit 7fc2357cd409b937181ec9588799cb3446d3832a (origin/master, master)                                                         
Author: dedenurdiyanto13 <dedenurdiyanto13@gmail.com>                                                                           
Date:   Wed Dec 15 09:37:06 2021 +0700                                                                                          
                                                                                                                                
    add <p> in index.html file                                                                                                  
                                                                                                                                
commit 7efe343218d7630f81f9ed36304c9dcb4330a44b                                                                                 
Author: dedenurdiyanto13 <dedenurdiyanto13@gmail.com>                                                                           
Date:   Tue Dec 14 20:40:57 2021 +0700                                                                                          
                                                                                                                                
    update index.html file                                                                                                      
                                                                                                                                
commit 7369944582a78e1ff056084582cb1de56f5dafef                                                                                 
Author: dedenurdiyanto13 <dedenurdiyanto13@gmail.com>                                                                           
Date:   Tue Dec 14 20:38:04 2021 +0700                                                                                          
                                                                                                                                
    create index.html file                                                                                                      
                                                                                                                                
C:\laragon\www\mern\fundamental-git (admin-page)                                                                                
λ git checkout master                                                                                                           
Switched to branch 'master'                                                                                                     
                                                                                                                                
C:\laragon\www\mern\fundamental-git (master)                                                                                    
λ git log                                                                                                                       
commit 7fc2357cd409b937181ec9588799cb3446d3832a (HEAD -> master, origin/master)                                                 
Author: dedenurdiyanto13 <dedenurdiyanto13@gmail.com>                                                                           
Date:   Wed Dec 15 09:37:06 2021 +0700                                                                                          
                                                                                                                                
    add <p> in index.html file                                                                                                  
                                                                                                                                
commit 7efe343218d7630f81f9ed36304c9dcb4330a44b                                                                                 
Author: dedenurdiyanto13 <dedenurdiyanto13@gmail.com>                                                                           
Date:   Tue Dec 14 20:40:57 2021 +0700                                                                                          
                                                                                                                                
    update index.html file                                                                                                      
                                                                                                                                
commit 7369944582a78e1ff056084582cb1de56f5dafef                                                                                 
Author: dedenurdiyanto13 <dedenurdiyanto13@gmail.com>                                                                           
Date:   Tue Dec 14 20:38:04 2021 +0700                                                                                          
                                                                                                                                
    create index.html file                                                                                                      
                                                                                                                                
C:\laragon\www\mern\fundamental-git (master)                                                                                    
λ git merge admin-page                                                                                                          
Updating 7fc2357..12689f1                                                                                                       
Fast-forward                                                                                                                    
 index.html | 1 +                                                                                                               
 1 file changed, 1 insertion(+)                                                                                                 
                                                                                                                                
C:\laragon\www\mern\fundamental-git (master)                                                                                    
λ git log                                                                                                                       
commit 12689f1206b9e326f20b428d319d41bc0c9dc577 (HEAD -> master, admin-page)                                                    
Author: dedenurdiyanto13 <dedenurdiyanto13@gmail.com>                                                                           
Date:   Wed Dec 15 10:13:24 2021 +0700                                                                                          
                                                                                                                                
    add link at index.html file                                                                                                 
                                                                                                                                
commit 7fc2357cd409b937181ec9588799cb3446d3832a (origin/master)                                                                 
Author: dedenurdiyanto13 <dedenurdiyanto13@gmail.com>                                                                           
Date:   Wed Dec 15 09:37:06 2021 +0700                                                                                          
                                                                                                                                
    add <p> in index.html file                                                                                                  
                                                                                                                                
commit 7efe343218d7630f81f9ed36304c9dcb4330a44b                                                                                 
Author: dedenurdiyanto13 <dedenurdiyanto13@gmail.com>                                                                           
Date:   Tue Dec 14 20:40:57 2021 +0700                                                                                          
                                                                                                                                
    update index.html file                                                                                                      
                                                                                                                                
commit 7369944582a78e1ff056084582cb1de56f5dafef                                                                                 
Author: dedenurdiyanto13 <dedenurdiyanto13@gmail.com>                                                                           
Date:   Tue Dec 14 20:38:04 2021 +0700                                                                                          
                                                                                                                                
    create index.html file                                                                                                      
                                                                                                                                
C:\laragon\www\mern\fundamental-git (master)                                                                                    
λ git status                                                                                                                    
On branch master                                                                                                                
Changes not staged for commit:                                                                                                  
  (use "git add <file>..." to update what will be committed)                                                                    
  (use "git restore <file>..." to discard changes in working directory)                                                         
        modified:   index.html                                                                                                  
                                                                                                                                
no changes added to commit (use "git add" and/or "git commit -a")                                                               
                                                                                                                                
C:\laragon\www\mern\fundamental-git (master)                                                                                    
λ git add . && git commit -m "add horizontal line"                                                                              
[master 8620ae1] add horizontal line                                                                                            
 1 file changed, 1 insertion(+)                                                                                                 
                                                                                                                                
C:\laragon\www\mern\fundamental-git (master)                                                                                    
λ git status                                                                                                                    
On branch master                                                                                                                
nothing to commit, working tree clean                                                                                           
                                                                                                                                
C:\laragon\www\mern\fundamental-git (master)                                                                                    
λ git checkout admin-page                                                                                                       
Switched to branch 'admin-page'                                                                                                 
                                                                                                                                
C:\laragon\www\mern\fundamental-git (admin-page)                                                                                
λ git status                                                                                                                    
On branch admin-page                                                                                                            
Changes not staged for commit:                                                                                                  
  (use "git add <file>..." to update what will be committed)                                                                    
  (use "git restore <file>..." to discard changes in working directory)                                                         
        modified:   index.html                                                                                                  
                                                                                                                                
no changes added to commit (use "git add" and/or "git commit -a")                                                               
                                                                                                                                
C:\laragon\www\mern\fundamental-git (admin-page)                                                                                
λ git add . && git commit -m "add ordered list"                                                                                 
[admin-page 20cecda] add ordered list                                                                                           
 1 file changed, 4 insertions(+)                                                                                                
                                                                                                                                
C:\laragon\www\mern\fundamental-git (admin-page)                                                                                
λ git checkout master                                                                                                           
Switched to branch 'master'                                                                                                     
                                                                                                                                
C:\laragon\www\mern\fundamental-git (master)                                                                                    
λ ls                                                                                                                            
index.html                                                                                                                      
                                                                                                                                
C:\laragon\www\mern\fundamental-git (master)                                                                                    
λ git merge admin-page                                                                                                          
Auto-merging index.html                                                                                                         
CONFLICT (content): Merge conflict in index.html                                                                                
Automatic merge failed; fix conflicts and then commit the result.                                                               
                                                                                                                                
C:\laragon\www\mern\fundamental-git (master)                                                                                    
λ git status                                                                                                                    
On branch master                                                                                                                
You have unmerged paths.                                                                                                        
  (fix conflicts and run "git commit")                                                                                          
  (use "git merge --abort" to abort the merge)                                                                                  
                                                                                                                                
Unmerged paths:                                                                                                                 
  (use "git add <file>..." to mark resolution)                                                                                  
        both modified:   index.html                                                                                             
                                                                                                                                
no changes added to commit (use "git add" and/or "git commit -a")                                                               
                                                                                                                                
C:\laragon\www\mern\fundamental-git (master)                                                                                    
λ git add . && git commit -m "solving conflict"                                                                                 
[master 2ad05ec] solving conflict                                                                                               
                                                                                                                                
C:\laragon\www\mern\fundamental-git (master)                                                                                    
λ git checkout admin-page                                                                                                       
Switched to branch 'admin-page'                                                                                                 
                                                                                                                                
C:\laragon\www\mern\fundamental-git (admin-page)                                                                                
λ git status                                                                                                                    
On branch admin-page                                                                                                            
nothing to commit, working tree clean                                                                                           
                                                                                                                                
C:\laragon\www\mern\fundamental-git (admin-page)                                                                                
λ git checkout master                                                                                                           
Switched to branch 'master'                                                                                                     
                                                                                                                                
C:\laragon\www\mern\fundamental-git (master)                                                                                    
λ git status                                                                                                                    
On branch master                                                                                                                
nothing to commit, working tree clean                                                                                           
                                                                                                                                
C:\laragon\www\mern\fundamental-git (master)                                                                                    
λ git log                                                                                                                       
commit 2ad05ec8f66212591f70a89c973d46c695ffe5e5 (HEAD -> master)                                                                
Merge: 8620ae1 20cecda                                                                                                          
Author: dedenurdiyanto13 <dedenurdiyanto13@gmail.com>                                                                           
Date:   Wed Dec 15 10:35:34 2021 +0700                                                                                          
                                                                                                                                
    solving conflict                                                                                                            
                                                                                                                                
commit 20cecda602532c18f400a52c2b08f1333c0e5305 (admin-page)                                                                    
Author: dedenurdiyanto13 <dedenurdiyanto13@gmail.com>                                                                           
Date:   Wed Dec 15 10:28:07 2021 +0700                                                                                          
                                                                                                                                
    add ordered list                                                                                                            
                                                                                                                                
commit 8620ae1fe173693cfc645e7f43013c92e6b9b26c                                                                                 
Author: dedenurdiyanto13 <dedenurdiyanto13@gmail.com>                                                                           
Date:   Wed Dec 15 10:26:06 2021 +0700                                                                                          
                                                                                                                                
    add horizontal line                                                                                                         
                                                                                                                                
commit 12689f1206b9e326f20b428d319d41bc0c9dc577                                                                                 
Author: dedenurdiyanto13 <dedenurdiyanto13@gmail.com>                                                                           
Date:   Wed Dec 15 10:13:24 2021 +0700                                                                                          
                                                                                                                                
    add link at index.html file                                                                                                 
                                                                                                                                
commit 7fc2357cd409b937181ec9588799cb3446d3832a (origin/master)                                                                 
Author: dedenurdiyanto13 <dedenurdiyanto13@gmail.com>                                                                           
Date:   Wed Dec 15 09:37:06 2021 +0700                                                                                          
                                                                                                                                
    add <p> in index.html file                                                                                                  
                                                                                                                                
commit 7efe343218d7630f81f9ed36304c9dcb4330a44b                                                                                 
Author: dedenurdiyanto13 <dedenurdiyanto13@gmail.com>                                                                           
Date:   Tue Dec 14 20:40:57 2021 +0700                                                                                          
                                                                                                                                
    update index.html file                                                                                                      
                                                                                                                                
commit 7369944582a78e1ff056084582cb1de56f5dafef                                                                                 
Author: dedenurdiyanto13 <dedenurdiyanto13@gmail.com>                                                                           
                                                                                                                                
C:\laragon\www\mern\fundamental-git (master)                                                                                    
λ git checkout admin-page                                                                                                       
Switched to branch 'admin-page'                                                                                                 
                                                                                                                                
C:\laragon\www\mern\fundamental-git (admin-page)                                                                                
λ git log                                                                                                                       
commit 20cecda602532c18f400a52c2b08f1333c0e5305 (HEAD -> admin-page)                                                            
Author: dedenurdiyanto13 <dedenurdiyanto13@gmail.com>                                                                           
Date:   Wed Dec 15 10:28:07 2021 +0700                                                                                          
                                                                                                                                
    add ordered list                                                                                                            
                                                                                                                                
commit 12689f1206b9e326f20b428d319d41bc0c9dc577                                                                                 
Author: dedenurdiyanto13 <dedenurdiyanto13@gmail.com>                                                                           
Date:   Wed Dec 15 10:13:24 2021 +0700                                                                                          
                                                                                                                                
    add link at index.html file                                                                                                 
                                                                                                                                
commit 7fc2357cd409b937181ec9588799cb3446d3832a (origin/master)                                                                 
Author: dedenurdiyanto13 <dedenurdiyanto13@gmail.com>                                                                           
Date:   Wed Dec 15 09:37:06 2021 +0700                                                                                          
                                                                                                                                
    add <p> in index.html file                                                                                                  
                                                                                                                                
commit 7efe343218d7630f81f9ed36304c9dcb4330a44b                                                                                 
Author: dedenurdiyanto13 <dedenurdiyanto13@gmail.com>                                                                           
Date:   Tue Dec 14 20:40:57 2021 +0700                                                                                          
                                                                                                                                
    update index.html file                                                                                                      
                                                                                                                                
commit 7369944582a78e1ff056084582cb1de56f5dafef                                                                                 
Author: dedenurdiyanto13 <dedenurdiyanto13@gmail.com>                                                                           
Date:   Tue Dec 14 20:38:04 2021 +0700                                                                                          
                                                                                                                                
    create index.html file                                                                                                      
                                                                                                                                
C:\laragon\www\mern\fundamental-git (admin-page)                                                                                
λ git merge master                                                                                                              
Updating 20cecda..2ad05ec                                                                                                       
Fast-forward                                                                                                                    
                                                                                                                                
C:\laragon\www\mern\fundamental-git (admin-page)                                                                                
λ git log                                                                                                                       
commit 2ad05ec8f66212591f70a89c973d46c695ffe5e5 (HEAD -> admin-page, master)                                                    
Merge: 8620ae1 20cecda                                                                                                          
Author: dedenurdiyanto13 <dedenurdiyanto13@gmail.com>                                                                           
Date:   Wed Dec 15 10:35:34 2021 +0700                                                                                          
                                                                                                                                
    solving conflict                                                                                                            
                                                                                                                                
commit 20cecda602532c18f400a52c2b08f1333c0e5305                                                                                 
Author: dedenurdiyanto13 <dedenurdiyanto13@gmail.com>                                                                           
Date:   Wed Dec 15 10:28:07 2021 +0700                                                                                          
                                                                                                                                
    add ordered list                                                                                                            
                                                                                                                                
commit 8620ae1fe173693cfc645e7f43013c92e6b9b26c                                                                                 
Author: dedenurdiyanto13 <dedenurdiyanto13@gmail.com>                                                                           
Date:   Wed Dec 15 10:26:06 2021 +0700                                                                                          
                                                                                                                                
    add horizontal line                                                                                                         
                                                                                                                                
commit 12689f1206b9e326f20b428d319d41bc0c9dc577                                                                                 
Author: dedenurdiyanto13 <dedenurdiyanto13@gmail.com>                                                                           
Date:   Wed Dec 15 10:13:24 2021 +0700                                                                                          
                                                                                                                                
    add link at index.html file                                                                                                 
                                                                                                                                
commit 7fc2357cd409b937181ec9588799cb3446d3832a (origin/master)                                                                 
Author: dedenurdiyanto13 <dedenurdiyanto13@gmail.com>                                                                           
Date:   Wed Dec 15 09:37:06 2021 +0700                                                                                          
                                                                                                                                
    add <p> in index.html file                                                                                                  
                                                                                                                                
commit 7efe343218d7630f81f9ed36304c9dcb4330a44b                                                                                 
Author: dedenurdiyanto13 <dedenurdiyanto13@gmail.com>                                                                           
Date:   Tue Dec 14 20:40:57 2021 +0700                                                                                          
                                                                                                                                
    update index.html file                                                                                                      
                                                                                                                                
commit 7369944582a78e1ff056084582cb1de56f5dafef                                                                                 
Author: dedenurdiyanto13 <dedenurdiyanto13@gmail.com>                                                                           
                                                                                                                                
C:\laragon\www\mern\fundamental-git (admin-page)                                                                                
λ git add . && git commit -m "create about.html file"                                                                           
[admin-page 5be0807] create about.html file                                                                                     
 1 file changed, 12 insertions(+)                                                                                               
 create mode 100644 about.html                                                                                                  
                                                                                                                                
C:\laragon\www\mern\fundamental-git (admin-page)                                                                                
λ git checkout master                                                                                                           
Switched to branch 'master'                                                                                                     
                                                                                                                                
C:\laragon\www\mern\fundamental-git (master)                                                                                    
λ git status                                                                                                                    
On branch master                                                                                                                
nothing to commit, working tree clean                                                                                           
                                                                                                                                
C:\laragon\www\mern\fundamental-git (master)                                                                                    
λ git add . && git commit -m "add <hr>"                                                                                         
[master 37972c1] add <hr>                                                                                                       
 1 file changed, 1 insertion(+)                                                                                                 
                                                                                                                                
C:\laragon\www\mern\fundamental-git (master)                                                                                    
λ git merge admin-page                                                                                                          
Merge made by the 'recursive' strategy.                                                                                         
 about.html | 12 ++++++++++++                                                                                                   
 1 file changed, 12 insertions(+)                                                                                               
 create mode 100644 about.html                                                                                                  
                                                                                                                                
C:\laragon\www\mern\fundamental-git (master)                                                                                    
λ git push origin master                                                                                                        
Username for 'https://gitlab.com': dedenurdiyanto13                                                                             
Password for 'https://dedenurdiyanto13@gitlab.com':                                                                             
Enumerating objects: 20, done.                                                                                                  
Counting objects: 100% (20/20), done.                                                                                           
Delta compression using up to 4 threads                                                                                         
Compressing objects: 100% (14/14), done.                                                                                        
Writing objects: 100% (18/18), 1.81 KiB | 206.00 KiB/s, done.                                                                   
Total 18 (delta 6), reused 0 (delta 0), pack-reused 0                                                                           
To https://gitlab.com/dedenurdiyanto13/fundamental-git.git                                                                      
   7fc2357..169aacb  master -> master                                                                                           
                                                                                                                                                                                                                                                                                                                                                                
C:\laragon\www\mern\fundamental-git (master)                                                                                    
λ git push origin admin-page                                                                                                    
Username for 'https://gitlab.com': dedenurdiyanto13                                                                             
Password for 'https://dedenurdiyanto13@gitlab.com':                                                                             
Total 0 (delta 0), reused 0 (delta 0), pack-reused 0                                                                            
remote:                                                                                                                         
remote: To create a merge request for admin-page, visit:                                                                        
remote:   https://gitlab.com/dedenurdiyanto13/fundamental-git/-/merge_requests/new?merge_request%5Bsource_branch%5D=admin-page  
remote:                                                                                                                         
To https://gitlab.com/dedenurdiyanto13/fundamental-git.git                                                                      
 * [new branch]      admin-page -> admin-page                                                                                   
                                                                                                                                
C:\laragon\www\mern\fundamental-git (master)                                                                                    
λ                                                                                                                               